{
    "environmentVariables": {
      "digitalBankHost": "https://preprod.jago.com/staging",
      "token": "5ebd293112b13b3491a01eb8e4e4cd221ac540a193b509af014e0e2b",
      "assetHost": "https://dev-assets.jago.com",
      "analyticsToken": "0e548b8c8e48cb0833809fd37790785b",
      "ablyHost": "https://jago-rest.ably.io/",
      "ablyEnvironment": "jago",
      "ablyFallbackHosts": [
        "jago-a-fallback.ably-realtime.com",
        "jago-b-fallback.ably-realtime.com",
        "jago-c-fallback.ably-realtime.com",
        "jago-d-fallback.ably-realtime.com",
        "jago-e-fallback.ably-realtime.com"
      ],
      "ablyKey": null,
      "ablyPassword": null,
      "ablyCipher": null,
      "ablySalt": null,
      "ablyIsEncrypted": false
    },
    "dev": {
      "shouldEnableVideoKycFeature": true,
      "shouldEnableAllLogs": true,
      "shouldEnableCrashlytics": false,
      "shouldEnableBillPaymentFeature": true,
      "shouldEnableBillPaymentRecurringPlanFeature": true,
      "shouldEnableAnalytics": true,
      "shouldEnableTermsConditionsWebView": true,
      "shouldEnableModalUpdateToggleLimit": false,
      "ablyIsEncrypted": false
    },
    "qa": {
      "shouldEnableVideoKycFeature": true,
      "shouldEnableAllLogs": false,
      "shouldEnableCrashlytics": true,
      "shouldEnableBillPaymentFeature": true,
      "shouldEnableBillPaymentRecurringPlanFeature": true,
      "shouldEnableAnalytics": true,
      "shouldEnableModalUpdateToggleLimit": false,
      "shouldEnableTermsConditionsWebView": true,
      "ablyIsEncrypted": false
    },
    "staging": {
      "shouldEnableVideoKycFeature": true,
      "shouldEnableAllLogs": false,
      "shouldEnableCrashlytics": true,
      "shouldEnableBillPaymentFeature": true,
      "shouldEnableBillPaymentRecurringPlanFeature": true,
      "shouldEnableAnalytics": true,
      "shouldEnableTermsConditionsWebView": true,
      "ablyIsEncrypted": true
    },
    "preprod": {
      "shouldEnableProxy": false,
      "shouldEnableVideoKycFeature": true,
      "shouldEnableCrashlytics": true,
      "shouldEnableAllLogs": false,
      "shouldEnableBillPaymentFeature": true,
      "shouldEnableBillPaymentRecurringPlanFeature": true,
      "shouldEnableAnalytics": true,
      "shouldEnableTermsConditionsWebView": true,
      "ablyIsEncrypted": true
    },
    "prod": {
      "shouldEnableVideoKycFeature": true,
      "shouldEnableAllLogs": false,
      "shouldEnableCrashlytics": true,
      "shouldEnableBillPaymentFeature": true,
      "shouldEnableBillPaymentRecurringPlanFeature": true
    },
    "perfTest": {
      "shouldEnableVideoKycFeature": true,
      "shouldEnableAllLogs": false,
      "shouldEnableCrashlytics": true,
      "shouldEnableBillPaymentFeature": true,
      "shouldEnableBillPaymentRecurringPlanFeature": true,
      "shouldEnableAnalytics": true,
      "shouldEnableTermsConditionsWebView": true,
      "ablyIsEncrypted": true
    }
  }